…
### Berry sizes

Here we will look at the size distribution of all berries using the
functions we created. This will return a tibble that has all 64 berries
and their sizes.

``` r
## grabs all the berries
Berries <- GiveMeThisInfo(fun = WhichBerry, vec = 1:64, info = "size")

Berries 
```

    ## # A tibble: 64 × 3
    ##    name      ID  size
    ##    <chr>  <int> <int>
    ##  1 cheri      1    20
    ##  2 chesto     2    80
    ##  3 pecha      3    40
    ##  4 rawst      4    32
    ##  5 aspear     5    50
    ##  6 leppa      6    28
    ##  7 oran       7    35
    ##  8 persim     8    47
    ##  9 lum        9    34
    ## 10 sitrus    10    95
    ## # ℹ 54 more rows
…
